{
    "frameworks/*" : {
        "trunk" : "none",
        "stable" : "none",
        "trunk_kf5" : "master",
        "stable_kf5" : "none"
    },

    "*" : {
        "trunk" : "none",
        "stable" : "none",
        "trunk_kf5" : "none",
        "stable_kf5" : "none"
    }
}
